MENU 
1. PACIENTE
2. ACCESO VASCULAR

--- TABLAS A USAR
1.  cnsr_datos_av ==> datos del acceso vascular
	



2.     cnsr_paciente ==> datos de paciente
 3.     cnsr_maestro ==> 
 	
	datos del acceso = > TIPO DE ACCESO VASCULAR 40 AL 46
			   ubicacion del acceso DEL 110 AL 129
	
	datos de paciete==> tipo de documento
			   
4.  cnscas10
	para datos del acceso  y de paciente
    CODIGO DE CLINICA
    ORIGEN DE CAS
    CENTRO ASISTENCIAL
 

 // CAMBIO CON COMBOBOX
	<html>
	<script>
        function tipoOnChange(sel) {
            if (sel.value=="vacio"){
                divC = document.getElementById("vacio");
                divC.style.display="";

                divC = document.getElementById("favi");
                divC.style.display="none";

                divT = document.getElementById("cvc");
                divT.style.display = "none";

            }else if (sel.value=="tarjeta"){


                divC = document.getElementById("vacio");
                divC.style.display="none";

                divC = document.getElementById("favi");
                divC.style.display="none";

                divT = document.getElementById("cvc");
                divT.style.display = "";
            
            } else {
                    divC = document.getElementById("vacio");
                divC.style.display="none";

                divC = document.getElementById("favi");
                divC.style.display = "";

                divT = document.getElementById("cvc");
                divT.style.display = "none";

            }
        }
	</script>
    <div>
    <SELECT class=" input-large form-control"  NAME="pago" onChange="tipoOnChange(this)">
           	<OPTION VALUE="vacio">seleccione </OPTION>
            <OPTION VALUE="transferencia">Por FAVI</OPTION>
            <OPTION VALUE="tarjeta">CVC</OPTION> 
    </SELECT>
      </div>
      <div id="vacio"style="display: none;" >
      </div>
      <div id="favi"style="display: none;" >
	  <a href="<?php echo site_url('usuario/perfil'); ?>" class="dropdown-item"><i class="ft-user"> </i>Perfil</a>		
      </div>
      <div id="cvc" style="display: none;">
	  	<?php include("application/views/vigilancia/reportetest.php");?>
      </div>
</div> 

 <div class="col-lg-3">
            <select data-placeholder="Choose a Country" class="chosen-select" tabindex="2">
              <option value=""></option>
              <option value="United States">United States</option>
              <option value="United Kingdom">United Kingdom</option>
			  </select> 
</div>

<style>
.chosen-select {
  width: 100%;
}
</style>
<script> 
      $(function() {
        $('.chosen-select').chosen();
        $('.chosen-select-deselect').chosen({ allow_single_deselect: true });
      });
</script>

 //ejemploi 
<script>
        function pagoOnChange(sel) {
            if (sel.value=="vacio"){
                divC = document.getElementById("vacio");
                divC.style.display="";

                divC = document.getElementById("nCuenta");
                divC.style.display="none";

                divT = document.getElementById("nTargeta");
                divT.style.display = "none";

            }else if (sel.value=="tarjeta"){


                divC = document.getElementById("vacio");
                divC.style.display="none";

                divC = document.getElementById("nCuenta");
                divC.style.display="none";

                divT = document.getElementById("nTargeta");
                divT.style.display = "";
            
            } else {
                    divC = document.getElementById("vacio");
                divC.style.display="none";

                divC = document.getElementById("nCuenta");
                divC.style.display = "";

                divT = document.getElementById("nTargeta");
                divT.style.display = "none";

            }
        }
</script>
    <div>
           <SELECT class=" input-large form-control"  NAME="pago" onChange="pagoOnChange(this)">
           <OPTION VALUE="vacio">seleccione </OPTION>
              <OPTION VALUE="transferencia">Transferéncia</OPTION>
              <OPTION VALUE="tarjeta">Pago con tarjeta</OPTION> 
           </SELECT>
      </div>
       <div id="vacio"style="display: none;" >
      </div>

      <div id="nCuenta"style="display: none;" >
           Nuestro numero de cuenta es: 423
      </div>


      <div id="nTargeta" style="display: none;">
           <br>
           Numero*
           <br>
           <input  name='nTarjeta'size='20' maxLength='3'>
           <br><br>
           Titular*
           <br>
           <input type='text' name='titularTarjeta'size='20' maxLength='60'>
           <br><br>
           Numero de seguridad*
           <input type='text' name='numeroSeguridad'size='3'  >
      </div>
</div> 


<script>
        $("#campo1").change(function() {
        if($("#campo1").val() !== "0"){
            $('#diagnostico1').prop('disabled', false);
        }else{
            $('#diagnostico1').prop('disabled', 'disabled');
            $('#diagnostico2').prop('disabled', 'disabled');
            $('#diagnostico3').prop('disabled', 'disabled');
        }
        });
        
        $("#diagnostico1").change(function() {
        if($("#diagnostico1").val() !== "0"){
            $('#diagnostico2').prop('disabled', false);
        }else{
            $('#diagnostico2').prop('disabled', 'disabled');
            $('#diagnostico3').prop('disabled', 'disabled');
        }
        });

        $("#diagnostico2").change(function() {
        if($("#diagnostico2").val() !== "0"){
            $('#diagnostico3').prop('disabled', false);
        }else{
            $('#diagnostico2').prop('disabled', 'disabled');
            $('#diagnostico3').prop('disabled', 'disabled');
        }
        });

</script>